{
  "development": {
    "username": "irvan",
    "password": "1ndonesiAr@ya",
    "database": "sequallize_assignment_development",
    "host": "127.0.0.1",
    "dialect": "mysql"
  },
  "test": {
    "username": "irvan",
    "password": "1ndonesiAr@ya",
    "database": "sequallize_assignment_test",
    "host": "127.0.0.1",
    "dialect": "mysql"
  },
  "production": {
    "username": "irvan",
    "password": "1ndonesiAr@ya",
    "database": "sequallize_assignment_production",
    "host": "127.0.0.1",
    "dialect": "mysql"
  }
}
